MATH1115 Computer Practical Exam (SAMPLE EXAM No.2 + ANSWERS)
…
1.5 Question 5: Data filtering

What are the values of the 5 most heaviest arrival delays in this data?

Which airline carrier operated all these 5 flights?

(Hint: positive value of arr_delay indicates delays in minutes.)

# Add your code

small_flights %>% 
  arrange(desc(arr_delay))

## # A tibble: 37,891 x 5
##    dep_delay arr_delay carrier origin dest 
##        <dbl>     <dbl> <chr>   <chr>  <chr>
##  1      1014      1007 AA      JFK    SFO  
##  2       896       878 AA      EWR    MIA  
##  3       853       852 AA      JFK    LAS  
##  4       845       846 AA      EWR    MIA  
##  5       803       802 AA      LGA    STL  
##  6       761       783 AA      JFK    IAH  
##  7       797       783 AA      JFK    LAS  
##  8       629       676 VX      JFK    SFO  
##  9       660       648 AA      LGA    MIA  
## 10       580       645 AA      EWR    MIA  
## #  with 37,881 more rows

## Or

small_flights %>% 
  arrange(-arr_delay)

## # A tibble: 37,891 x 5
##    dep_delay arr_delay carrier origin dest 
##        <dbl>     <dbl> <chr>   <chr>  <chr>
##  1      1014      1007 AA      JFK    SFO  
##  2       896       878 AA      EWR    MIA  
##  3       853       852 AA      JFK    LAS  
##  4       845       846 AA      EWR    MIA  
##  5       803       802 AA      LGA    STL  
##  6       761       783 AA      JFK    IAH  
##  7       797       783 AA      JFK    LAS  
##  8       629       676 VX      JFK    SFO  
##  9       660       648 AA      LGA    MIA  
## 10       580       645 AA      EWR    MIA  
## #  with 37,881 more rows
…
